COVID-19 - Curva Epidemiológica
…
## Using ',' as decimal and '.' as grouping mark. Use read_delim() for more control.

## Parsed with column specification:
## cols(
##   regiao = col_character(),
##   estado = col_character(),
##   data = col_character(),
##   casosNovos = col_double(),
##   casosAcumulados = col_double(),
##   obitosNovos = col_double(),
##   obitosAcumulado = col_double()
## )

## # A tibble: 36 x 3
##    dia        confirmados óbitos
##    <date>           <dbl>  <dbl>
##  1 2020-02-26           1      0
##  2 2020-02-27           1      0
##  3 2020-02-28           1      0
##  4 2020-02-29           2      0
##  5 2020-03-01           2      0
##  6 2020-03-02           2      0
##  7 2020-03-03           2      0
##  8 2020-03-04           3      0
##  9 2020-03-05           7      0
## 10 2020-03-06          13      0
## # … with 26 more rows
…
